\relax 
\providecommand\babel@aux[2]{}
\@nameuse{bbl@beforestart}
\catcode `"\active 
\catcode `<\active 
\catcode `>\active 
\@nameuse{es@quoting}
\catcode `'\active 
\providecommand\hyper@newdestlabel[2]{}
\providecommand\HyperFirstAtBeginDocument{\AtBeginDocument}
\HyperFirstAtBeginDocument{\ifx\hyper@anchor\@undefined
\global\let\oldnewlabel\newlabel
\gdef\newlabel#1#2{\newlabelxx{#1}#2}
\gdef\newlabelxx#1#2#3#4#5#6{\oldnewlabel{#1}{{#2}{#3}}}
\AtEndDocument{\ifx\hyper@anchor\@undefined
\let\newlabel\oldnewlabel
\fi}
\fi}
\global\let\hyper@last\relax 
\gdef\HyperFirstAtBeginDocument#1{#1}
\providecommand\HyField@AuxAddToFields[1]{}
\providecommand\HyField@AuxAddToCoFields[2]{}
\babel@aux{spanish}{}
\@writefile{toc}{\contentsline {section}{\numberline {1}Introducción}{1}{section.1}\protected@file@percent }
\@writefile{toc}{\contentsline {section}{\numberline {2}Pre-requisitos}{1}{section.2}\protected@file@percent }
\@writefile{toc}{\contentsline {section}{\numberline {3}Inicialización}{1}{section.3}\protected@file@percent }
\newlabel{inicialization}{{3}{1}{Inicialización}{section.3}{}}
\@writefile{toc}{\contentsline {subsection}{\numberline {3.1}Creación de la Base de Datos}{1}{subsection.3.1}\protected@file@percent }
\newlabel{create-db}{{3.1}{1}{Creación de la Base de Datos}{subsection.3.1}{}}
\@writefile{toc}{\contentsline {subsection}{\numberline {3.2}Descargar y configurar proyecto}{2}{subsection.3.2}\protected@file@percent }
\newlabel{download-project}{{3.2}{2}{Descargar y configurar proyecto}{subsection.3.2}{}}
\@writefile{toc}{\contentsline {subsection}{\numberline {3.3}Llenar DB}{2}{subsection.3.3}\protected@file@percent }
\newlabel{fill-db}{{3.3}{2}{Llenar DB}{subsection.3.3}{}}
\@writefile{toc}{\contentsline {subsection}{\numberline {3.4}Reiniciar datos en la DB}{2}{subsection.3.4}\protected@file@percent }
\newlabel{sycn-db}{{3.4}{2}{Reiniciar datos en la DB}{subsection.3.4}{}}
\@writefile{toc}{\contentsline {section}{\numberline {4}Conexión}{3}{section.4}\protected@file@percent }
\newlabel{connexion}{{4}{3}{Conexión}{section.4}{}}
\@writefile{toc}{\contentsline {subsection}{\numberline {4.1}Iniciar conexiones}{3}{subsection.4.1}\protected@file@percent }
\newlabel{connect-db}{{4.1}{3}{Iniciar conexiones}{subsection.4.1}{}}
\@writefile{toc}{\contentsline {subsection}{\numberline {4.2}Más de una conexión}{3}{subsection.4.2}\protected@file@percent }
\newlabel{multi-db}{{4.2}{3}{Más de una conexión}{subsection.4.2}{}}
\@writefile{toc}{\contentsline {subsection}{\numberline {4.3}Cerrar conexión}{4}{subsection.4.3}\protected@file@percent }
\newlabel{close-db}{{4.3}{4}{Cerrar conexión}{subsection.4.3}{}}
\@writefile{toc}{\contentsline {section}{\numberline {5}Modelos}{4}{section.5}\protected@file@percent }
\newlabel{models}{{5}{4}{Modelos}{section.5}{}}
\@writefile{toc}{\contentsline {subsection}{\numberline {5.1}Definición de un modelo}{5}{subsection.5.1}\protected@file@percent }
\newlabel{define-model}{{5.1}{5}{Definición de un modelo}{subsection.5.1}{}}
\@writefile{toc}{\contentsline {subsubsection}{\numberline {5.1.1}Atributos}{5}{subsubsection.5.1.1}\protected@file@percent }
\newlabel{define-model-attributes}{{5.1.1}{5}{Atributos}{subsubsection.5.1.1}{}}
\@writefile{toc}{\contentsline {subsubsection}{\numberline {5.1.2}Opciones}{5}{subsubsection.5.1.2}\protected@file@percent }
\newlabel{define-model-options}{{5.1.2}{5}{Opciones}{subsubsection.5.1.2}{}}
\@writefile{toc}{\contentsline {subsubsection}{\numberline {5.1.3}Tipos de datos}{6}{subsubsection.5.1.3}\protected@file@percent }
\newlabel{define-model-datatypes}{{5.1.3}{6}{Tipos de datos}{subsubsection.5.1.3}{}}
\@writefile{toc}{\contentsline {subsubsection}{\numberline {5.1.4}Definición usando .define() de la instancia.}{7}{subsubsection.5.1.4}\protected@file@percent }
\newlabel{define-model-method}{{5.1.4}{7}{Definición usando .define() de la instancia}{subsubsection.5.1.4}{}}
\@writefile{toc}{\contentsline {subsubsection}{\numberline {5.1.5}Definición extendiendo la clase \emph  {Model}.}{9}{subsubsection.5.1.5}\protected@file@percent }
\newlabel{extend-model-method}{{5.1.5}{9}{Definición extendiendo la clase \emph {Model}}{subsubsection.5.1.5}{}}
\@writefile{toc}{\contentsline {subsubsection}{\numberline {5.1.6}Nombre del modelo vs nombre de la tabla}{10}{subsubsection.5.1.6}\protected@file@percent }
\newlabel{model-name}{{5.1.6}{10}{Nombre del modelo vs nombre de la tabla}{subsubsection.5.1.6}{}}
\@writefile{toc}{\contentsline {subsubsection}{\numberline {5.1.7}Ejercicios}{11}{subsubsection.5.1.7}\protected@file@percent }
\newlabel{define-model-exercises}{{5.1.7}{11}{Ejercicios}{subsubsection.5.1.7}{}}
\@writefile{toc}{\contentsline {subsection}{\numberline {5.2}Scopes de modelos}{12}{subsection.5.2}\protected@file@percent }
\newlabel{model-scope}{{5.2}{12}{Scopes de modelos}{subsection.5.2}{}}
\@writefile{toc}{\contentsline {subsubsection}{\numberline {5.2.1}Definición de un scope}{12}{subsubsection.5.2.1}\protected@file@percent }
\newlabel{define-model-scope}{{5.2.1}{12}{Definición de un scope}{subsubsection.5.2.1}{}}
\@writefile{toc}{\contentsline {subsubsection}{\numberline {5.2.2}Modo de uso de los Scopes}{14}{subsubsection.5.2.2}\protected@file@percent }
\newlabel{model-scope-use}{{5.2.2}{14}{Modo de uso de los Scopes}{subsubsection.5.2.2}{}}
\@writefile{toc}{\contentsline {subsection}{\numberline {5.3}Sincronización de modelos}{14}{subsection.5.3}\protected@file@percent }
\newlabel{model-sync}{{5.3}{14}{Sincronización de modelos}{subsection.5.3}{}}
\@writefile{toc}{\contentsline {subsection}{\numberline {5.4}Ejercicio}{15}{subsection.5.4}\protected@file@percent }
\newlabel{model-exercise}{{5.4}{15}{Ejercicio}{subsection.5.4}{}}
\@writefile{toc}{\contentsline {subsection}{\numberline {5.5}Instancia de un modelo}{15}{subsection.5.5}\protected@file@percent }
\newlabel{model-instance}{{5.5}{15}{Instancia de un modelo}{subsection.5.5}{}}
\@writefile{toc}{\contentsline {section}{\numberline {6}Querys}{16}{section.6}\protected@file@percent }
\newlabel{querys}{{6}{16}{Querys}{section.6}{}}
\@writefile{toc}{\contentsline {subsection}{\numberline {6.1}QueryObjects}{16}{subsection.6.1}\protected@file@percent }
\newlabel{queryObject}{{6.1}{16}{QueryObjects}{subsection.6.1}{}}
\@writefile{toc}{\contentsline {subsubsection}{\numberline {6.1.1}where}{17}{subsubsection.6.1.1}\protected@file@percent }
\newlabel{queryObject-where}{{6.1.1}{17}{where}{subsubsection.6.1.1}{}}
\@writefile{toc}{\contentsline {subsubsection}{\numberline {6.1.2}attributes}{17}{subsubsection.6.1.2}\protected@file@percent }
\newlabel{queryObject-attributtes}{{6.1.2}{17}{attributes}{subsubsection.6.1.2}{}}
\@writefile{toc}{\contentsline {subsubsection}{\numberline {6.1.3}offset}{18}{subsubsection.6.1.3}\protected@file@percent }
\newlabel{queryObject-offset}{{6.1.3}{18}{offset}{subsubsection.6.1.3}{}}
\@writefile{toc}{\contentsline {subsubsection}{\numberline {6.1.4}limit}{18}{subsubsection.6.1.4}\protected@file@percent }
\newlabel{queryObject-limit}{{6.1.4}{18}{limit}{subsubsection.6.1.4}{}}
\@writefile{toc}{\contentsline {subsubsection}{\numberline {6.1.5}raw}{19}{subsubsection.6.1.5}\protected@file@percent }
\newlabel{queryObject-raw}{{6.1.5}{19}{raw}{subsubsection.6.1.5}{}}
\@writefile{toc}{\contentsline {subsubsection}{\numberline {6.1.6}order}{20}{subsubsection.6.1.6}\protected@file@percent }
\newlabel{queryObject-order}{{6.1.6}{20}{order}{subsubsection.6.1.6}{}}
\@writefile{toc}{\contentsline {subsubsection}{\numberline {6.1.7}include}{21}{subsubsection.6.1.7}\protected@file@percent }
\newlabel{queryObject-include}{{6.1.7}{21}{include}{subsubsection.6.1.7}{}}
\@writefile{toc}{\contentsline {subsection}{\numberline {6.2}Model.findAll}{22}{subsection.6.2}\protected@file@percent }
\newlabel{findAll}{{6.2}{22}{Model.findAll}{subsection.6.2}{}}
\@writefile{toc}{\contentsline {subsection}{\numberline {6.3}Model.findOne}{22}{subsection.6.3}\protected@file@percent }
\newlabel{findOne}{{6.3}{22}{Model.findOne}{subsection.6.3}{}}
\@writefile{toc}{\contentsline {subsection}{\numberline {6.4}Model.findByPk}{24}{subsection.6.4}\protected@file@percent }
\newlabel{findByPk}{{6.4}{24}{Model.findByPk}{subsection.6.4}{}}
\@writefile{toc}{\contentsline {subsection}{\numberline {6.5}Model.count}{24}{subsection.6.5}\protected@file@percent }
\newlabel{count}{{6.5}{24}{Model.count}{subsection.6.5}{}}
\@writefile{toc}{\contentsline {subsection}{\numberline {6.6}Model.findAndCountAll}{25}{subsection.6.6}\protected@file@percent }
\newlabel{findAndCountAll}{{6.6}{25}{Model.findAndCountAll}{subsection.6.6}{}}
\@writefile{toc}{\contentsline {subsection}{\numberline {6.7}Raw Querys}{25}{subsection.6.7}\protected@file@percent }
\newlabel{raw-querys}{{6.7}{25}{Raw Querys}{subsection.6.7}{}}
\@writefile{toc}{\contentsline {subsubsection}{\numberline {6.7.1}Remplazos}{26}{subsubsection.6.7.1}\protected@file@percent }
\newlabel{raw-querys-replacements}{{6.7.1}{26}{Remplazos}{subsubsection.6.7.1}{}}
\gdef \@abspage@last{27}
